hw2/code/hw2/post_sim/pipeline/pipeline.vcd
$date
	Sun Oct 20 22:18:07 2024

$end
$version
	Chronologic Simulation VCS Release V-2023.12
$end
$timescale
	1ps
$end
$scope module testbench $end
$var reg 1 ! CLK $end
$var reg 1 " input_reset $end
$var reg 1 # input_s $end
$var reg 8 $ input_a [7:0] $end
$var reg 8 % input_b [7:0] $end
$var reg 8 & input_c [7:0] $end
$var wire 16 ' output_d [15:0] $end
$var reg 8 ( addsub [7:0] $end
$var reg 16 ) answer [15:0] $end
$var integer 32 * i [31:0] $end
$var integer 32 + flag [31:0] $end
$var integer 32 , error [31:0] $end
$var integer 32 - temp [31:0] $end
$var integer 32 . seed [31:0] $end
$scope module pipe $end
$var wire 8 / a [7:0] $end
$var wire 8 0 b [7:0] $end
$var wire 8 1 c [7:0] $end
$var wire 16 ' d [15:0] $end
$var wire 1 2 s $end
$var wire 1 3 clk $end
$var wire 1 4 reset $end
$var wire 8 5 addsub [7:0] $end
$scope module s1 $end
$var wire 8 / a [7:0] $end
$var wire 8 0 b [7:0] $end
$var wire 8 5 result [7:0] $end
$var wire 1 2 s $end
$var wire 1 3 clk $end
$var wire 1 4 reset $end
$var wire 1 6 N3 $end
$var wire 1 7 N4 $end
$var wire 1 8 N5 $end
$var wire 1 9 N6 $end
$var wire 1 : N7 $end
$var wire 1 ; N8 $end
$var wire 1 < N9 $end
$var wire 1 = N10 $end
$var wire 1 > N11 $end
$var wire 1 ? N12 $end
$var wire 1 @ N13 $end
$var wire 1 A N14 $end
$var wire 1 B N15 $end
$var wire 1 C N16 $end
$var wire 1 D N17 $end
$var wire 1 E N18 $end
$var wire 1 F n1 $end
$var wire 1 G n2 $end
$var wire 8 H temp [7:0] $end
$scope module dff1 $end
$var wire 8 5 q [7:0] $end
$var wire 8 H d [7:0] $end
$var wire 1 3 clk $end
$var wire 1 4 reset $end
$var wire 1 I n1 $end
$upscope $end
$scope module sub_22 $end
$var wire 8 / A [7:0] $end
$var wire 8 0 B [7:0] $end
$var wire 8 J DIFF [7:0] $end
$var wire 1 K n1 $end
$var wire 1 L n2 $end
$var wire 1 M n3 $end
$var wire 1 N n4 $end
$var wire 1 O n5 $end
$var wire 1 P n6 $end
$var wire 1 Q n7 $end
$var wire 1 R n8 $end
$var wire 1 S n9 $end
$var wire 6 T carry [7:2] $end
$upscope $end
$scope module add_19 $end
$var wire 8 / A [7:0] $end
$var wire 8 0 B [7:0] $end
$var wire 8 U SUM [7:0] $end
$var wire 1 V n1 $end
$var wire 6 W carry [7:2] $end
$upscope $end
$upscope $end
$scope module s2 $end
$var wire 8 5 addsub [7:0] $end
$var wire 8 1 c [7:0] $end
$var wire 16 ' result [15:0] $end
$var wire 1 3 clk $end
$var wire 1 4 reset $end
$var wire 16 X final [15:0] $end
$scope module dff2 $end
$var wire 16 ' q [15:0] $end
$var wire 16 X d [15:0] $end
$var wire 1 3 clk $end
$var wire 1 4 reset $end
$var wire 1 Z n1 $end
$upscope $end
$scope module mult_33 $end
$var wire 8 5 a [7:0] $end
$var wire 8 1 b [7:0] $end
$var wire 16 X product [15:0] $end
$var wire 1 [ n1 $end
$var wire 1 \ n2 $end
$var wire 1 ] n3 $end
$var wire 1 ^ n4 $end
$var wire 1 _ n5 $end
$var wire 1 ` n6 $end
$var wire 1 a n7 $end
$var wire 1 b n8 $end
$var wire 1 c n9 $end
$var wire 1 d n10 $end
$var wire 1 e n11 $end
$var wire 1 f n12 $end
$var wire 1 g n13 $end
$var wire 1 h n14 $end
$var wire 1 i n15 $end
$var wire 1 j n17 $end
$var wire 1 k n18 $end
$var wire 1 l n19 $end
$var wire 1 m n21 $end
$var wire 1 n n23 $end
$var wire 1 o n24 $end
$var wire 1 p n25 $end
$var wire 1 q n26 $end
$var wire 1 r n27 $end
$var wire 1 s n28 $end
$var wire 1 t n29 $end
$var wire 1 u n30 $end
$var wire 1 v n31 $end
$var wire 1 w n32 $end
$var wire 1 x n35 $end
$var wire 1 y n36 $end
$var wire 1 z n37 $end
$var wire 1 { n38 $end
$var wire 1 | n41 $end
$var wire 1 } n42 $end
$var wire 1 ~ n44 $end
$var wire 1 !! n47 $end
$var wire 1 "! n48 $end
$var wire 1 #! n51 $end
$var wire 1 $! n52 $end
$var wire 1 %! n53 $end
$var wire 1 &! n54 $end
$var wire 1 '! n55 $end
$var wire 1 (! n56 $end
$var wire 1 )! n58 $end
$var wire 1 *! n60 $end
$var wire 1 +! n61 $end
$var wire 1 ,! n62 $end
$var wire 1 -! n63 $end
$var wire 1 .! n64 $end
$var wire 1 /! n65 $end
$var wire 1 0! n66 $end
$var wire 1 1! n68 $end
$var wire 1 2! n69 $end
$var wire 1 3! n71 $end
$var wire 1 4! n73 $end
$var wire 1 5! n79 $end
$var wire 1 6! n80 $end
$var wire 1 7! n81 $end
$var wire 1 8! n82 $end
$var wire 1 9! n85 $end
$var wire 1 :! n86 $end
$var wire 1 ;! n89 $end
$var wire 1 <! n90 $end
$var wire 1 =! n91 $end
$var wire 1 >! n92 $end
$var wire 1 ?! n93 $end
$var wire 1 @! n94 $end
$var wire 1 A! n95 $end
$var wire 1 B! n96 $end
$var wire 1 C! n97 $end
$var wire 1 D! n98 $end
$var wire 1 E! n99 $end
$var wire 1 F! n103 $end
$var wire 1 G! n104 $end
$var wire 1 H! n105 $end
$var wire 1 I! n107 $end
$var wire 1 J! n108 $end
$var wire 1 K! n109 $end
$var wire 1 L! n110 $end
$var wire 1 M! n111 $end
$var wire 1 N! n112 $end
$var wire 1 O! n113 $end
$var wire 1 P! n114 $end
$var wire 1 Q! n115 $end
$var wire 1 R! n116 $end
$var wire 1 S! n117 $end
$var wire 1 T! n118 $end
$var wire 1 U! n120 $end
$var wire 1 V! n121 $end
$var wire 1 W! n122 $end
$var wire 1 X! n123 $end
$var wire 1 Y! n124 $end
$var wire 1 Z! n125 $end
$var wire 1 [! n126 $end
$var wire 1 \! n127 $end
$var wire 1 ]! n128 $end
$var wire 1 ^! n129 $end
$var wire 1 _! n130 $end
$var wire 1 `! n131 $end
$var wire 1 a! n132 $end
$var wire 1 b! n133 $end
$var wire 1 c! n134 $end
$var wire 1 d! n135 $end
$var wire 1 e! n136 $end
$var wire 1 f! n137 $end
$var wire 1 g! n138 $end
$var wire 1 h! n139 $end
$var wire 1 i! n140 $end
$var wire 1 j! n141 $end
$var wire 1 k! n142 $end
$var wire 1 l! n143 $end
$var wire 1 m! n144 $end
$var wire 1 n! n145 $end
$var wire 1 o! n146 $end
$var wire 1 p! n147 $end
$var wire 1 q! n148 $end
$var wire 1 r! n149 $end
$var wire 1 s! n150 $end
$var wire 1 t! n151 $end
$var wire 1 u! n152 $end
$var wire 1 v! n153 $end
$var wire 1 w! n154 $end
$var wire 1 x! n155 $end
$var wire 1 y! n156 $end
$var wire 1 z! n157 $end
$var wire 1 {! n158 $end
$var wire 1 |! n159 $end
$var wire 1 }! n160 $end
$var wire 1 ~! n161 $end
$var wire 1 !" n162 $end
$var wire 1 "" n163 $end
$var wire 1 #" n164 $end
$var wire 1 $" n165 $end
$var wire 1 %" n166 $end
$var wire 1 &" n167 $end
$var wire 1 '" n168 $end
$var wire 1 (" n169 $end
$var wire 1 )" n170 $end
$var wire 1 *" n171 $end
$var wire 1 +" n172 $end
$var wire 1 ," n173 $end
$var wire 1 -" n174 $end
$var wire 1 ." n175 $end
$var wire 1 /" n176 $end
$var wire 1 0" n178 $end
$var wire 1 1" n179 $end
$var wire 1 2" n180 $end
$var wire 1 3" n181 $end
$var wire 1 4" n182 $end
$var wire 1 5" n183 $end
$var wire 1 6" n184 $end
$var wire 1 7" n185 $end
$var wire 1 8" n186 $end
$var wire 1 9" n187 $end
$var wire 1 :" n188 $end
$var wire 1 ;" n189 $end
$var wire 1 <" n190 $end
$var wire 1 =" n191 $end
$var wire 1 >" n192 $end
$var wire 1 ?" n193 $end
$var wire 1 @" n194 $end
$var wire 1 A" n195 $end
$var wire 1 B" n196 $end
$var wire 1 C" n197 $end
$var wire 1 D" n198 $end
$var wire 1 E" n199 $end
$var wire 1 F" n200 $end
$var wire 1 G" n201 $end
$var wire 1 H" n202 $end
$var wire 1 I" n203 $end
$var wire 1 J" n204 $end
$var wire 1 K" n205 $end
$var wire 1 L" n206 $end
$var wire 1 M" n207 $end
$var wire 1 N" n208 $end
$var wire 1 O" n209 $end
$var wire 1 P" n210 $end
$var wire 1 Q" n211 $end
$var wire 1 R" n212 $end
$var wire 1 S" n213 $end
$var wire 1 T" n214 $end
$var wire 1 U" n215 $end
$var wire 1 V" n216 $end
$var wire 1 W" n217 $end
$var wire 1 X" n218 $end
$var wire 1 Y" n219 $end
$var wire 1 Z" n220 $end
$var wire 1 [" n221 $end
$var wire 1 \" n222 $end
$var wire 1 ]" n223 $end
$var wire 1 ^" n224 $end
$var wire 1 _" n225 $end
$var wire 1 `" n226 $end
$var wire 1 a" n227 $end
$var wire 1 b" n228 $end
$var wire 1 c" n229 $end
$var wire 1 d" n230 $end
$var wire 1 e" n231 $end
$var wire 1 f" n232 $end
$var wire 1 g" n233 $end
$var wire 1 h" n234 $end
$var wire 1 i" n235 $end
$var wire 1 j" n236 $end
$var wire 1 k" n237 $end
$var wire 1 l" n238 $end
$var wire 1 m" n239 $end
$var wire 1 n" n240 $end
$var wire 1 o" n241 $end
$var wire 1 p" n242 $end
$var wire 1 q" n243 $end
$var wire 1 r" n244 $end
$var wire 1 s" n245 $end
$var wire 1 t" n246 $end
$var wire 1 u" n247 $end
$var wire 1 v" n248 $end
$var wire 1 w" n249 $end
$var wire 1 x" n250 $end
$var wire 1 y" n251 $end
$var wire 1 z" n252 $end
$var wire 1 {" n253 $end
$var wire 1 |" n254 $end
$var wire 1 }" n255 $end
$var wire 1 ~" n256 $end
$var wire 1 !# n257 $end
$var wire 1 "# n258 $end
$var wire 1 ## n259 $end
$var wire 1 $# n260 $end
$var wire 1 %# n261 $end
$var wire 1 &# n263 $end
$var wire 1 '# n265 $end
$var wire 1 (# n266 $end
$var wire 1 )# n267 $end
$var wire 1 *# n268 $end
$var wire 1 +# n269 $end
$var wire 1 ,# n306 $end
$var wire 1 -# n307 $end
$var wire 1 .# n308 $end
$var wire 1 /# n309 $end
$var wire 1 0# n310 $end
$var wire 1 1# n311 $end
$var wire 1 2# n312 $end
$var wire 1 3# n313 $end
$var wire 1 4# n314 $end
$var wire 1 5# n315 $end
$var wire 1 6# n316 $end
$var wire 1 7# n317 $end
$var wire 1 8# n318 $end
$var wire 1 9# n319 $end
$var wire 1 :# n320 $end
$var wire 1 ;# n321 $end
$var wire 1 <# n322 $end
$var wire 1 =# n323 $end
$var wire 1 ># n324 $end
$var wire 1 ?# n325 $end
$var wire 1 @# n326 $end
$var wire 1 A# n327 $end
$var wire 1 B# n328 $end
$var wire 1 C# n329 $end
$var wire 1 D# n330 $end
$var wire 1 E# n331 $end
$var wire 1 F# n332 $end
$var wire 1 G# n333 $end
$var wire 1 H# n334 $end
$var wire 1 I# n335 $end
$var wire 1 J# n336 $end
$var wire 1 K# n337 $end
$var wire 1 L# n338 $end
$var wire 1 M# n339 $end
$var wire 1 N# n340 $end
$var wire 1 O# n341 $end
$var wire 1 P# n342 $end
$var wire 1 Q# n343 $end
$var wire 1 R# n344 $end
$var wire 1 S# n345 $end
$var wire 1 T# n346 $end
$var wire 1 U# n347 $end
$var wire 1 V# n348 $end
$var wire 1 W# n349 $end
$var wire 1 X# n350 $end
$var wire 1 Y# n351 $end
$var wire 1 Z# n352 $end
$var wire 1 [# n353 $end
$var wire 1 \# n354 $end
$var wire 1 ]# n355 $end
$var wire 1 ^# n356 $end
$var wire 1 _# n357 $end
$var wire 1 `# n358 $end
$var wire 1 a# n359 $end
$var wire 1 b# n360 $end
$var wire 1 c# n361 $end
$var wire 1 d# n362 $end
$var wire 1 e# n363 $end
$var wire 1 f# n364 $end
$var wire 1 g# n365 $end
$var wire 1 h# n366 $end
$var wire 1 i# n367 $end
$var wire 1 j# n368 $end
$var wire 1 k# n369 $end
$var wire 1 l# n370 $end
$var wire 1 m# n371 $end
$var wire 1 n# n372 $end
$var wire 1 o# n373 $end
$var wire 1 p# n374 $end
$var wire 1 q# n375 $end
$var wire 1 r# n376 $end
$var wire 1 s# n377 $end
$var wire 1 t# n378 $end
$var wire 1 u# n379 $end
$var wire 1 v# n380 $end
$var wire 1 w# n381 $end
$var wire 1 x# n382 $end
$var wire 1 y# n383 $end
$var wire 1 z# n384 $end
$var wire 1 {# n385 $end
$var wire 1 |# n386 $end
$var wire 1 }# n387 $end
$var wire 1 ~# n388 $end
$var wire 1 !$ n389 $end
$var wire 1 "$ n390 $end
$var wire 1 #$ n391 $end
$var wire 1 $$ n392 $end
$var wire 1 %$ n393 $end
$var wire 1 &$ n394 $end
$var wire 1 '$ n395 $end
$var wire 1 ($ n396 $end
$var wire 1 )$ n397 $end
$var wire 1 *$ n398 $end
$var wire 1 +$ n399 $end
$var wire 1 ,$ n400 $end
$var wire 1 -$ n401 $end
$var wire 1 .$ n402 $end
$var wire 1 /$ n403 $end
$var wire 1 0$ n404 $end
$var wire 1 1$ n405 $end
$var wire 1 2$ n406 $end
$var wire 1 3$ n407 $end
$var wire 1 4$ n408 $end
$var wire 1 5$ n409 $end
$var wire 1 6$ n410 $end
$var wire 1 7$ n411 $end
$var wire 1 8$ n412 $end
$var wire 1 9$ n413 $end
$var wire 1 :$ n414 $end
$var wire 1 ;$ n415 $end
$var wire 1 <$ n416 $end
$var wire 1 =$ n417 $end
$var wire 1 >$ n418 $end
$var wire 1 ?$ n419 $end
$var wire 1 @$ n420 $end
$var wire 1 A$ n421 $end
$var wire 1 B$ n422 $end
$var wire 1 C$ n423 $end
$var wire 1 D$ n424 $end
$var wire 1 E$ n425 $end
$var wire 1 F$ n426 $end
$var wire 1 G$ n427 $end
$var wire 1 H$ n428 $end
$var wire 1 I$ n429 $end
$var wire 1 J$ n430 $end
$var wire 1 K$ n431 $end
$var wire 1 L$ n432 $end
$var wire 1 M$ n433 $end
$var wire 1 N$ n434 $end
$var wire 1 O$ n435 $end
$upscope $end
$upscope $end
$upscope $end
$upscope $end
$enddefinitions $end
$dumpvars
0!
xO$
x"
bxxxxxxxx $
bxxxxxxxx (
bxxxxxxxx 0
x@
xa
xC!
xe"
xf"
xD!
xg"
xh"
xb
xE!
xi"
xj"
xF!
xk"
xl"
xA
xc
xG!
xm"
xn"
xH!
xo"
xp"
xd
xI!
xq"
xr"
xJ!
xs"
xt"
bxxxxxxxx 1
xB
xe
xK!
xu"
xv"
xL!
xw"
xx"
xf
xM!
xy"
xz"
xN!
x{"
x|"
xC
xg
xO!
x}"
x~"
xP!
x!#
x"#
xh
xQ!
x##
x$#
xR!
x%#
x&#
bxxxxxxxxxxxxxxxx )
x2
xD
xi
xS!
x'#
x(#
xT!
x)#
x*#
xj
xU!
x+#
x,#
xV!
x-#
x.#
xE
xk
xW!
x/#
x0#
xX!
x1#
x2#
xl
xY!
x3#
x4#
xZ!
x5#
x6#
03
0F
xm
xN$
x[!
x7#
x8#
x\!
x9#
x:#
xn
x]!
x;#
x<#
x^!
x=#
x>#
xG
xo
x_!
x?#
x@#
x`!
xA#
xB#
xp
xa!
xC#
xD#
xb!
xE#
xF#
bxxxxxxxx %
bxxxxxxxxxxxxxxxxxxxxxxxxxxxxxxxx *
x4
bxxxxxxxx H
xq
xc!
xG#
xH#
xd!
xI#
xJ#
xr
xe!
xK#
xL#
xf!
xM#
xN#
xI
xs
xg!
xO#
xP#
xh!
xQ#
xR#
xt
xi!
xS#
xT#
xj!
xU#
xV#
bxxxxxxxx 5
bxxxxxxxx J
xu
xk!
xW#
xX#
xl!
xY#
xZ#
xv
xm!
x[#
x\#
xn!
x]#
x^#
xK
xw
xo!
x_#
x`#
xp!
xa#
xb#
xx
xq!
xc#
xd#
xr!
xe#
xf#
b00000000000000000000000000000000 +
x6
xM$
xL
xy
xs!
xg#
xh#
xt!
xi#
xj#
xz
xu!
xk#
xl#
xv!
xm#
xn#
xM
x{
xw!
xo#
xp#
xx!
xq#
xr#
x|
xy!
xs#
xt#
xz!
xu#
xv#
x7
xN
x}
x{!
xw#
xx#
x|!
xy#
xz#
x~
x}!
x{#
x|#
x~!
x}#
x~#
xO
x!!
x!"
x!$
x"$
x""
x#$
x$$
x"!
x#"
x%$
x&$
x$"
x'$
x($
x#
bxxxxxxxx &
b00000000000000000000000000000000 ,
x8
xL$
xP
x#!
x%"
x)$
x*$
x&"
x+$
x,$
x$!
x'"
x-$
x.$
x("
x/$
x0$
xQ
x%!
x)"
x1$
x2$
x*"
x3$
x4$
x&!
x+"
x5$
x6$
x,"
x7$
x8$
x9
xR
x'!
x-"
x9$
x:$
x."
x;$
x<$
x(!
x/"
x=$
x>$
x0"
x?$
x@$
xS
x)!
x1"
xA$
xB$
x2"
xC$
xD$
x*!
x3"
xE$
xF$
x4"
xG$
xH$
bxxxxxxxxxxxxxxxxxxxxxxxxxxxxxxxx -
x:
bxxxxxx T
x+!
x5"
xI$
xJ$
x6"
xK$
x,!
x7"
x8"
bxxxxxxxx U
x-!
x9"
x:"
x.!
x;"
x<"
x;
xV
x/!
x="
x>"
x0!
x?"
x@"
bxxxxxx W
x1!
xA"
xB"
x2!
xC"
xD"
bxxxxxxxxxxxxxxxx '
bxxxxxxxxxxxxxxxxxxxxxxxxxxxxxxxx .
x<
bxxxxxxxxxxxxxxxx X
x3!
xE"
xF"
x4!
xG"
xH"
xZ
x5!
xI"
xJ"
x6!
xK"
xL"
x=
x[
x7!
xM"
xN"
x8!
xO"
xP"
x\
x9!
xQ"
xR"
x:!
xS"
xT"
bxxxxxxxx /
x>
x]
x;!
xU"
xV"
x<!
xW"
xX"
x^
x=!
xY"
xZ"
x>!
x["
x\"
x?
x_
x?!
x]"
x^"
x@!
x_"
x`"
x`
xA!
xa"
xb"
xB!
xc"
xd"
$end
#25000
1!
13
#50000
0!
03
#75000
1!
13
#100000
0!
03
0d"
0c"
1D#
1##
0I!
1b
0@
1"
1O$
b10000000 0
b10111000 $
b00111000 (
0h"
0e"
1a
0C!
0g"
0f"
0D!
1d
1A
0j"
0E!
0i"
0l"
0F!
0k"
0p"
0m"
1c
0G!
0o"
0n"
0H!
0Q!
1f
1B
0J!
0q"
0r"
b00000000 1
0s"
0t"
0x"
0u"
1e
0K!
0w"
0v"
0L!
1h
1C
0z"
0M!
0y"
1|"
0N!
0{"
1"#
1}"
1g
0O!
1!#
1~"
0P!
0$"
0Y!
1j
0D
1%#
1$#
0R!
02
1&#
b0000000000000000 )
1*#
1'#
1i
0S!
1)#
1(#
0T!
0l
0E
0,#
0U!
1+#
1.#
0V!
1-#
12#
1/#
1k
0W!
11#
00#
0X!
1C#
0a!
0n
0Z!
13#
14#
1m
15#
16#
0:#
17#
1N$
0[!
19#
18#
0\!
1p
1G
1<#
0]!
1;#
0>#
0^!
1=#
0B#
1?#
0o
0_!
1A#
1@#
0`!
1&$
1c#
0i!
0r
b00111000 H
0F#
0b!
0E#
14
b10000000 %
b00000000000000000000000000000000 *
1J#
0G#
1q
0c!
1I#
0H#
0d!
1t
0I
0L#
0e!
1K#
1N#
0f!
1M#
1R#
1O#
1s
0g!
0Q#
1P#
0h!
0q!
0v
b00111000 J
0j!
1S#
1T#
b00000000 5
0U#
1V#
1Z#
1W#
0u
0k!
1Y#
1X#
0l!
1x
1K
1\#
0m!
0[#
1^#
0n!
0]#
1b#
1_#
1w
0o!
1a#
1`#
0p!
1%$
0y!
1z
0L
0e#
1d#
0r!
1M$
1f#
06
1j#
0g#
0y
0s!
1i#
1h#
0t!
1|
1M
1l#
0u!
1k#
0n#
0v!
1m#
1r#
1o#
1{
0w!
1q#
1p#
0x!
0#"
0~
1N
0z!
0s#
1t#
07
0u#
1v#
1z#
0w#
1}
0{!
1y#
0x#
0|!
1"!
1O
1|#
0}!
1{#
1~#
0~!
1}#
1$$
1!$
0!!
0!"
0#$
0"$
0""
1-!
0I$
0E$
0+"
1$!
1P
0#
0'$
1($
1L$
b00000000 &
08
1,$
1)$
0#!
0%"
1+$
1*$
0&"
0&!
1Q
1.$
0'"
1-$
10$
0("
1/$
04$
11$
1%!
0)"
03$
12$
0*"
03"
1(!
1R
0,"
15$
16$
19
17$
08$
1<$
09$
1'!
0-"
1;$
1:$
0."
1*!
1S
0>$
0/"
0=$
1@$
00"
1?$
0D$
1A$
0)!
01"
0C$
1B$
02"
1:
b00000000000000000000000010000000 -
0B!
0B"
1G$
1F$
04"
0A"
1H$
05"
b111111 T
1+!
b00111000 U
0K$
1J$
06"
08"
0,!
07"
11!
0V
1.!
09"
0:"
1;
0;"
0<"
b000000 W
0>"
1/!
0="
0@"
00!
0?"
0b"
0Q"
15!
b0000000000000000 X
0D"
12!
0C"
0<
b0000000000000000 '
b11000011010110010011011111001100 .
0Z
0F"
03!
0E"
0H"
14!
0G"
19!
1[
06!
0I"
0J"
0=
0K"
0L"
1\
0N"
17!
0M"
0P"
18!
0O"
0a"
1=!
1]
0S"
0R"
1:!
0>
0T"
b10111000 /
1^
0V"
1;!
0U"
0X"
1<!
0W"
0A!
1_
1>!
0Y"
0Z"
0?
0["
0\"
1`
0^"
0?!
0]"
0`"
0@!
0_"
#125000
1!
13
#150000
0!
03
#175000
1!
13
#200000
0!
03
b00101010 (
0"
1@
b11011100 $
b01001110 0
0B
0C
12
1E
0G
b00000000000000000000000000000001 *
b00101010 H
b01001110 %
04
1I
b10001110 J
1L
0M
17
b111000 T
b00101010 U
0Q
0R
b101110 W
b11100011110011001001010010110011 .
0P
1#
0:
1Z
b11011100 /
1?
#225000
13
1!
0*#
0(#
0C#
b00101010 5
0v#
1u#
0J$
#250000
03
0!
#275000
13
1!
#300000
b11100001110101110110010111100110 .
1C
b10111001 (
1P
b01110011 /
b01110011 $
0?
b01000110 0
b00101101 J
0E
b10111001 H
b00000000000000000000000000000010 *
b01000110 %
16
07
b10111001 U
b111001 T
b100011 W
03
0!
b00000000000000000000000001000110 -
1:
1=
1>
#325000
b10111001 5
0'#
0+#
0l#
0k#
1*#
13
1!
#350000
03
0!
#375000
13
1!
#400000
03
0!
0>
b11011111 /
0L
0@
b00000000000000000000000000000011 *
1B
b10100110 (
0C
b11000111 0
b11011111 $
b10100110 H
b00011000 J
b101111 W
b111111 T
0S
b10100110 U
06
18
09
0:
17
1V
b01000100111010110001111001010101 .
b11000111 %
#425000
1!
13
0)#
1+#
1(#
1'#
0m#
b10100110 5
0*#
#450000
0!
03
#475000
1!
13
#500000
b11000101 %
b11111110 $
b00000000000000000000000000000100 *
b00101110110110100010111110110000 .
1>
b11111110 /
b11000101 0
0K
b11000011 U
b11000011 (
16
1C
b11000011 H
0V
08
b111110 W
b00111001 J
0!
03
0;
1<
1R
#525000
1J$
1m#
1v#
0&#
0u#
1C#
0+#
0f#
1)#
b11000011 5
1!
13
#550000
0!
03
#575000
1!
13
#600000
b00000000000000000000000000000101 *
03
b11111111 (
b11101110 $
1D
1@
b00010001 %
1L
b11111111 U
b01000111100010110100000101100111 .
b00010001 0
b11101110 /
1E
0O
19
1M
1;
0C
b11111111 H
18
0!
1Q
b110111 T
b000000 W
b00000000000000000000000000010001 -
b11011101 J
1:
#625000
0m#
0'#
0J$
0)#
13
0C#
0(#
0v#
1u#
b11111111 5
1!
#650000
03
0!
#675000
13
1!
#700000
b10111100 /
0A
b00000000000000000000000000000110 *
b10111100 $
0=
0P
0<
0:
b00000101 (
0@
b01001001 0
1?
b01110011 J
b11110001100010101111001110101010 .
b01001001 %
b00000101 U
b00000101 H
0M
09
1O
03
0!
1C
0;
b111100 W
0E
07
b011110 T
#725000
1(#
1'#
1l#
1*#
1v#
0u#
1J$
1C#
1&#
1f#
1k#
b00000101 5
13
1!
#750000
03
0!
#775000
13
1!
#800000
b010111 T
b00101111101011000001111001101001 .
b00000000000000000000000001011100 -
b10101100 /
b10101100 $
b00000000000000000000000000000111 *
b01010000 J
1K
b00001000 (
0>
0?
b01011100 0
b01011100 %
08
06
0O
b00001000 H
03
0!
1S
19
b111110 W
0C
b00001000 U
0Q
#825000
0(#
1+#
1m#
b00001000 5
1)#
13
1!
#850000
03
0!
#875000
13
1!
#900000
1P
17
1Q
b10000000011010010011110001010100 .
1=
b011111 T
02
1G
1<
0B
b01000000 (
b10010001 $
b10010001 /
b01000000 J
b00000000000000000000000000001000 *
b01010001 0
b01010001 %
b01000000 H
0S
b11100010 U
03
0!
1V
b001000 W
09
0#
1;
#925000
1(#
b01000000 5
0&#
0f#
13
1!
#950000
03
0!
#975000
13
1!
#1000000
0;
0D
b01111111 /
07
b00000000000000000000000001010001 -
1A
1C
b01111111 $
b111111 T
1:
b00011000110000110111000111011011 .
b11010000 (
0G
1@
12
b00000000000000000000000000001001 *
b00101110 J
b11010000 H
1#
03
0!
b111111 W
1?
b11010000 U
#1025000
0l#
0'#
0k#
b11010000 5
13
1!
#1050000
03
0!
#1075000
13
1!
#1100000
b10110000 U
0?
b11100110 /
0R
1;
0P
b10110000 (
0C
b11001010101110000110000000101110 .
b11100110 $
0L
b110011 T
1B
0<
b11001010 %
b100111 W
b00000000000000000000000000001010 *
b00011100 J
03
0!
b11001010 0
b10110000 H
1O
1S
0V
#1125000
0J$
1f#
1&#
1u#
0v#
0C#
b10110000 5
13
1!
#1150000
03
0!
#1175000
13
1!
#1200000
1V
b10100101 /
0Q
0S
b110000 T
19
1?
b00111100 U
0=
b10100101 $
b00111100 (
1P
b01010100110100111011010000111101 .
b00001110 J
0O
b00000000000000000000000000001011 *
0B
03
0!
18
1M
b00111100 H
b000011 W
b10010111 0
b10010111 %
#1225000
0(#
0m#
1l#
0)#
1k#
b00111100 5
13
1!
#1250000
03
0!
#1275000
13
1!
#1300000
b00101100 (
17
b100001 T
b00010111 %
1G
b01000011 /
b01000011 $
1L
0?
0;
b01011010 U
1C
b11001110010010000010000110111000 .
b00101100 J
b00000000000000000000000000001100 *
b00010111 0
03
0!
1<
b00101100 H
0#
02
08
#1325000
1'#
b00101100 5
13
1!
#1350000
03
0!
#1375000
13
1!
#1400000
1;
b000000 T
b00001010 (
b000000 W
0V
1S
1?
b01110110 %
b00000000000000000000000001110110 -
1=
09
b10000000 $
0N
b10000000 /
b01110110 0
0@
b00000000000000000000000000001101 *
b00010100001110010011101000001111 .
18
03
0!
b00001010 J
b00001010 H
b11110110 U
0M
0C
#1425000
1m#
1v#
0u#
b00001010 5
1)#
0*#
1J$
1C#
13
1!
#1450000
03
0!
#1475000
13
1!
#1500000
b11101110 $
0!
b00010101 (
0;
1>
1M
b111100 T
07
1#
1D
b110111 W
0A
0=
0G
0S
0K
b00000000000000000000000000100111 -
b00100111 %
12
1E
b00010101 U
b10000010100000000100111101110010 .
b11101110 /
b00100111 0
03
16
1O
b00010101 H
b00000000000000000000000000001110 *
b11000111 J
0<
1@
#1525000
0)#
0m#
1(#
1*#
1!
0+#
b00010101 5
0'#
13
#1550000
0!
03
#1575000
1!
13
#1600000
0E
b111101 T
1<
b00000100 (
b00101000 $
1K
0>
19
1R
1S
1G
b010000 W
0:
0D
0#
0?
b00100100 0
b00000100 J
b00101000 /
b00100100 %
02
0!
03
b01110111001101100101001111010001 .
b00000000000000000000000000001111 *
b01001100 U
b00000100 H
06
#1625000
1+#
1'#
b00000100 5
1!
13
#1650000
0!
03
#1675000
1!
13
#1700000
16
b01111101 H
1D
b01111101 (
1;
1C
0<
b000001 T
1:
b10011001 $
b001100 W
1>
09
1=
1A
b10110101 U
b00011100 0
b01111101 J
b10011001 /
0!
03
0P
1N
b00000000000000000000000000010000 *
1B
b01001100010101110110001111011100 .
b00011100 %
0O
#1725000
0v#
0&#
b01111101 5
0'#
0(#
0f#
1u#
0C#
0J$
0+#
1!
13
#1750000
0!
03
#1775000
1!
13
#1800000
1O
b01001011 %
b00100000 (
b00100000 H
0M
06
0@
0D
1Q
17
0>
1V
b100101 W
b111111 T
0S
0R
b01101011 $
b11011100000001100110111000000011 .
b10110110 U
b01101011 /
b01001011 0
0!
03
b00100000 J
0B
0A
b00000000000000000000000000010001 *
#1825000
1m#
1(#
1+#
1)#
1&#
1'#
b00100000 5
1f#
1!
13
#1850000
0!
03
#1875000
1!
13
#1900000
0;
b00000000000000000000000000010010 *
b00110001 %
1M
0O
b10010110 H
b10010110 (
b100111 T
1@
b110000 W
0G
12
1B
b00110001 0
b01100101 /
b00110011100111000010010101110110 .
0!
03
b10010110 U
b00110100 J
1R
1#
b01100101 $
1P
0N
#1925000
0m#
0k#
0l#
0'#
1C#
1v#
0*#
0)#
b10010110 5
0u#
1J$
1!
13
#1950000
0!
03
#1975000
1!
13
#2000000
0P
03
0M
16
19
1N
b01001110 %
1A
1S
b00000000000000000000000000010011 *
1O
b000001 T
b00111101 (
1>
0Q
07
1<
b00111101 H
0V
b10001011 $
b00010000000000000011000100100101 .
08
b10001011 /
02
1G
0!
b00000000000000000000000001001110 -
0#
b000111 W
b01001110 0
0R
b11011001 U
b00111101 J
#2025000
b00111101 5
1l#
0v#
13
1k#
0C#
0(#
0+#
1u#
0J$
1*#
1!
#2050000
03
0!
#2075000
13
1!
#2100000
03
0!
1C#
b00110101 U
0<
1P
b10000111 %
1"
b00000000 5
b00100111 J
1m#
1M
09
1;
1v#
1'#
0K
0A
b10000000101110100100011011000000 .
b111100 T
0S
b00000000000000000000000000010100 *
0L
b00110101 (
0I
14
b10101110 /
b00110101 H
0Z
12
1)#
b10101110 $
1J$
1(#
0u#
1+#
0=
1?
0B
b10000111 0
18
0G
b00000000000000000000000010000111 -
1#
#2125000
1!
13
#2150000
0!
03
#2175000
1!
13
